Web of (climate) Science – ke
…
Code

final_vis_df <- as_long_data_frame(ref_area_pairs_vis)

Code

ref_all_long %>% 
  group_by(research_area) %>%
  count() %>% arrange(desc(n))

# A tibble: 142 × 2
# Groups:   research_area [142]
   research_area                           n
   <chr>                               <int>
 1 Environmental Sciences & Ecology     4036
 2 Science & Technology - Other Topics  2302
 3 Meteorology & Atmospheric Sciences   1314
 4 Engineering                          1299
 5 Communication                        1062
 6 Computer Science                      897
 7 Geology                               814
 8 Telecommunications                    475
 9 Business & Economics                  468
10 Agriculture                           446
# ℹ 132 more rows
…
